Ravi chhotai,ravi@chhotai.com
Amit Agrawal,mail.agrawalamit@gmail.com
Ankit Agarwal,agarwalankit06@gmail.com
SHIVAM POPAT,shivampopat@gmail.com
Jabirali ,jabir.titan@gmail.com
Shaheena Beriwal,shaheena31@gmail.com
Alok Ranjan,alokr@titan.co.in
Prateek jain,prateekjain_1988@rediffmail.com
Soniya Vora,.soniyavora@gmail.com
Harinder Singh Madaan,madaanhs@gmail.com
Utsava Sharma,sharmautsava@gmail.com
Prakash Kumar Rathod ,pkr.snd@gmail.com
Rishabh aggarwal,rishabh.cmj@gmail.com
Sunit Mishra,sunitkumarmishra@gmail.com
rajesh sadani,rajeshsadani@rediffmail.com
Arhan Arora,arhan.pba@gmail.com
Ravi Sharma,ravisharma@titan.co.in
Ranjan Mukherjee ,ranjan.m60@gmail.com
Bhharat,jimit@chhotai.com
Kumar,kdsidhwani@gmail.com
Dhaval Kothari,dhavalkothari@hotmail.com
PARESH GANDHA,OTJGW@TITAN.CO.IN
Vilas Kale,vakale123@gmail.com
Tarun Jagwani,tjagwani@gmail.com
Rajesh Sagar ,rajeshsagar290@gmail.com
NISHITH SHAH,ishita@ishita.biz
VINAY KUMAR AGARWAL ,mysagar_ji@yahoo.com
SURESH SOMANI,souvenir.pondy@gmail.com
AZMAT SIDDIQI,azzi.sidd@gmail.com
P K RAMESH,26rameshpk@gmail.com
khasim sk,khasimsk@titan.co.in
Atul Rane,atulrane@titan.co.in
Zuhaib Malik,malikzuhaib@gmail.com
Nandita Abhimanyu ,nandita.abhimanyu@qrs.in
Ram Govind ch,ostas@titan.co.in
Jaikumar K G,jaikumarkg@gmail.com
BINOJ KRISHNA,binojkrishna@gmail.com
Senthil Kumar Mani,sk.senthils@gmail.com
Dharmesh Mehta ,btqraj@titan.co.in
Lakshmi Preethi Murali,preethi.svghss@gmail.com
Godson Josva,josva@titan.co.in
Sumit Mohan,sumitmohan05@gmail.com
Francis Jose ,mail2francisjose@gmail.com
Santosh,santosh.eyeplus@gmail.com
Sirajuddin Panakkat ,sirajkpk@hotmail.com
Ameen,ameen@zimson.net
Gauri Mule,gaurim@titan.co.in
Neeraj khanna,ftaun@titan.co.in
Pooja Bhosale,bhosale.pooja174@gmail.com
shankar,shreetimes@gmail.com
Sanjay Arora,san2003@gmail.com
Ajay kumar ,ajaykumar@titan.co.in
Anshu Kesharwani,anshuk@titan.co.in
Megha Rai,megha@titan.co.in
Pulkit Aggarwal,pulkitaggarwal5.pa@gmail.com
Ashish Kapoor,wotchandigarh17@gmail.com
Siva ,pothigaisiva@gmail.com
SHIVAM SHARMA,trretails@gmail.com
Premkumar,titanprem@gmail.com
Senthilvelan,senthilvelanp@gmail.com
Subhash Chandra,subhashchandra7127@gmail.com
Sekhar Vigin,sekharvigin@titan.co.in
Venkatesh,venkateshp@titan.co.in
Manvi Grover,manvigrover@gmail.com
Pravin Parab,shubhanand.titan@gmail.com
Brahma rao,wpags@titan.co.in
Maris ,sgmaria@gmail.com
Vikram Mansukhani,mansukhani@titan.co.in
Naisargi Vyas,naisargi.vyas@gmail.com
Kumar Gaurav,Kumarg@titan.co.in
pratheesh prabhakaran,pratheesh@titan.co.in
Rahul Kale,kale.rahul@gmail.com
Tamas Oberoi,tamas@titan.co.in
Mohit,wsbrn@titan.co.in
AKSHAY MEHTA,akshaysm@gmail.com
Ashish Kashyap,ashishkumar@titan.co.in
Abhishek Jain,abhishekjain2006@rediffmail.com
Pavan Pareek,wdjrn@titan.co.in
Sohan lal jaisalmeria,wsajn@titan.co.in
Suvendu Roy,suvendu@titan.co.in
Bhupathi raju Lakshmi Devi,lakshmi.titaneye@gmail.com
HARDIK PATEL,hardikpatel.1788@gmail.com
Viresh Marda,vireshmarda@mardas.com
Yash Singh,Yashs@titan.co.in
Devansh Dua,md@cityexports.in
Vikram Dhillon ,vikramdhillon87@gmail.com
RAJAN KAPOOR,kapoorhouse@gmail.com
Divya Periwal,wbgrn@titan.co.in
Samrat Roy,samratr@titan.co.in
ASHISH SINGH,ashishsinghb@gmail.com
VIBHASHITA SINGH,slcudaipur@gmail.com
Praveen Gulgulia,praveengulgulia@gmail.com
Anurag Kumar,btqgurgaon@gmail.com
Vivek Arora,vivek@sankallpa.com
Gaurav Agarwal,gauravspeed_2885@yahoo.com
Shailendra Pratap Singh,shailendravatsa@gmail.com
Rajnish Vats,vats.rajnish@gmail.com
Gunjan Gupta,gunjangarg171@gmail.com
Nipun Gupta,nipunynr@gmail.com
R. Hariharan,cemboostindiapvtltd@gmail.com
Sunny,sunny.sethi84@yahoo.com
Shashank Kalia,shashankkalia94@gmail.com
pawan burad,pbmamo@gmail.com
Kaushal Sah,sahkaushalsah@gmail.com
AMIT BAHIRWANI,aligarhunique@gmail.co
Ritesh Ladha,BTQDPV@TITAN.CO.IN
Harsh Sinha,harshsinha@saurashtracorp.com
Ashish singhal ,ashish.singhal@rtechgroup.co.in
Atif Siddiqui,atif_vns@rediffmail.com
Palash Khemka,palash.khemka92@gmail.com
Sudhanshu Rastogi,sudhanshu1994@gmail.com
Arnav Narain,narainarnav@gmail.com
Supriya Vyas,supriyavvyas@gmail.com
Ramkrishna ,ramkrishna.mukherjee@gmail.com
RAGHAVENDRA PRATAP SINGH,shalz.inclko@gmail.com
Dharmendra P,dr1pappu@gmail.com
SUKRITA ARORA ,sukritaarora@gmail.com
Aviral Sah,sah.aviral@gmail.com
Pranav Leekha,pranav.leekha@gmail.com
UMESH TEKRIWAL,btqtpt@titan.co.in
Sasitharan A,sasimys@gmail.com
Meenu tyagi,sabla.rbl@gmail.com
Rahul Khandelwal,rahul10k@gmail.com
Akhil Dewan,akhildewan@gmail.com
Navin Gupta,navin.gupta5@gmail.com
Sristi Das,sristitasmaya@gmail.com
BIPIN CHOUDHARY ,bipinc@titan.co.in
Abhishek Kumar Singh ,abhishek.pearlcars@gmail.com
Rashi Adlakha ,rashiadlakha@gmail.com
Kalp Sheth,managerimperio@gmail.com
Mohammed Tahir khan,tahirk@titan.co.in
Dinesh kumar ,dineshkumar@titan.co.in
SARVESH AGARWAL,sarvesh.agarwal07@gmail.com
Shyam Tiwari,shyam_tiwari@titan.co.in
KESAHV THAKUR KISHORE,keshavkishore@titan.co.in
SANJEEV JAIN,shubhsamay@gmail.com
Shanky Goyal,shanky@goyalsons.co.in
Shyam sundar k r,shyam@titan.co.in
Balasundaram Hariharan,1989hariharan@gmail.cok
sandesh r pai ,sandeshpai@titan.co.in
SANJIV Kejariwal,sanjeevkejariwal@gmail.com
BHANU PRASAD NEKKANTI,bhanunekkanti26@gmail.com
Tushar jain,tushar22k@gmail.com
Hariprasad Vijaykumar,hariprasad@titan.co.in
Sameer Joshi ,sameerj@titan.co.in
Raghavendra Pratap Singh,Shivenretails@gmail.com
Sanjay Hebbalkar,sanjayshebbalkar@gmail.com
Joyita Sen ,joyitam@titan.co.in
Abhay J Sanghavi,sanghavikb@gmail.com
Nikunj T. Sanghavi,wmtkw@titan.co.in
Vikrant Alimchandani,vikrant.alimchandani@gmail.com
VEENA RAMESH ,veenaramesh8@gmail.com
Ramakrishna Rai ,rair.premieragencies@gmail.com
Narendra Kumar Muthum,narendra.muthum@outlook.com
ARVIND SINGHEE,wasjn@titan.co.in
Arijit Dasgupta,arijit1@titan.co.in
Ram kumar  ,globuzindia@gmail.com
Suhas AR,suhas.ramaprasad@gmail.com
Nagendra Kaushik,tnkaushik@tallamventures.com
Dipen Mehta,mr.dipenmehta@gmail.com
Tarun Sahu,tarunsahulko82@gmail.com
Pavan Talreja,sstfhennur@gmail.com
Ranjit kotian,kotianranjit@gmail.com
Raja Kalidoss,rtmkumbakonam@gmail.com
Padmalata Prasad,padmalata10@gmail.com
Kailash S. Angadi ,kailash@titan.co.in
Mahesh  k u,mahesh.ku25@gmail.com
Tony Pullan,tony.pullan@gmail.com
Kowsalyadevi Vijayakumar,Vijaydevi.3c@gmail.com
V madhusudhan,madhubigben@gmail.com
Shivanarain ,sns205@yahoo.com
Maneesha Premchandani,maneeshapremchandani@gmail.com
Sanjeev Kapuf,sanjeevmng@yahoo.com
Girish Kumar,girishkumarvenu@gmail.com
Vivek aggarwal,basantventures@yahoo.com
Vasuki G S,vasuki_sanji@yahoo.co.in
Kavitha shah,kavitha@adonisgroup.in
Yassir Pakran,yassir.pakran@gmail.com
Chetan Hanamsagar,chetan.hanamsagar@gmail.com
Vara Prasad Vankadaru ,varaprasad@vasavigroup.in
Goyal ,btqbtd@titan.co.in
Vinod Kapoor ,vinodkapoor@gmail.com
Rashi Adlakha,rashiadlakha@gmail.com
Amit Kumar M,gmsaw07@gmail.com
Meeta Khera,meeta.khera@gmail.com
Piyush chandak,piyushchandak08.pc@gmail.com
Ketan,kjoshivr@gmail.com
Sanjiv Kejariwal ,sanjeevkejariwal@gmail.com
Abhishek Kar,abhishekkar@titan.co.in
VRISHAB CHANDAN T ,vrishabct@gmail.com
nirmal baijal,wraun@titan.co.in
RAJANI DHANDHANIA,raymond.rmpl@gmail.com
Harikrishnan Sridharan,hsridharan75@gmail.com
Madhusudan,mmandyam@gmail.com
Rana Uppalapati,rana_u@yahoo.com
Dharmu Jashnani,wkmgw@titan.co.in
Anugrah singh,anugrah@titan.co.in
Raksha Rai,raksha@titan.co.in
CHANDRA MOHAN.G,chandramohan.crystal93@gmail.com
Rajeev Tallam,rajeev_tallam@yahoo.com
Keshav Talwar,keshavtkn@gmail.com
M.suriya,velanenterprisescbe07@gmail.com
Raghu Kumar,raghup@titan.co.in
Prasad Sangwai,sangwaiprasad@gmail.com
Arti Verma,btqfbd@gmail.com
DEEPA BAHIRWANI,fuaun@titan.co.in
Chitra Sivakumar ,chitrasivakumar248@gmail.com
GANESH S M,OMBKS@TITAN.CO.IN
Manjit Singh,manjit@inderas.com
Mukesh  Kumar,makmukeshkumar0104@gmail.com
Maxim Stephen Saldanha,titan.udupi@gmail.com
Ravi Sinha,ravikumarsinha@titan.co.in
Pooja khattar,poojamanaktala@yahoo.com
Rajeishh Kansara,anjanflagshipstore@gmail.com
Kansara Rakesh R,anjanathwalines@gmail.com
Manan Parulekar,mananparulekar@gmail.com
Abhishek kandara,abhik@titan.co.in
Sanjay Singh,wlnln@titan.co.in
Kanchan Manshani ,manshani.kanchan@gmail.com
Karthik Rajan,karthikrajan@titan.co.in
Dorab Patel,dorab@ngdawatches.com
RAJESH EMMADI,rajeshe@titan.co.in
Manchoju Bhanu chandar,bhanuchander@titan.co.in
ANIL PIRCHETI,pircheti@titan.co.in
Sajid Khan,sajidahmedkhan@titan.co.in
M V RAJA SHEKAR,mvrs02@gmail.com
M V RAJA SHEKAR,sasyatitaneye@gmail.com
M V RAJA SHEKAR,sasyaknlfastrack@gmail.com
Mohammed Khadeer Ahmed,ahmedever@hotmail.com
Zakir Hussain,mohammed11@titan.co.in
Ojaswa Pal,gnpalsons@gmail.com
Avik Ghosh,avik@titan.co.in
Ramon Burns,ramon.bluspot@gmail.com
Arjun Parekh,arjunparekh@titan.co.in
Richa Chaturvedi,richa@titan.co.in
Rajeev Tibrewal,rktibrewal03@gmail.com
Jai Krishnan,jaikrishnanv@titan.co.in
Tusharika Gupta,tusharikagupta18@gmail.com
chandan gupta,chandang@titan.co.in
vipul singh,vipul@titan.co.in
Kshitij Choudhary,kchoudhary10@gmail.com
Ronak Bathani,info@bathanibuilders.com
rameswar singh ,rameswars@titan.co.in
Balkrushna Bathani,ronak@bathanibuilders.com
S  KUNDU,santitradingmalda@gmail.com
PRASHANT RUPARELIA,stljnd2019@gmail.com
Chandan Pareek,chandanpareek@titan.co.in
Subramani,subramanib@titan.co.in
Bijal Marfatia,bijal@titan.co.in
Jagdish Raval ,jagdishtime@gmail.com
Himanshu lodhia,himanshulodhia@gmail.com
Pramod Kumar Kulshrestha ,pramod_1951@yahoo.co.in
Poonam Amish patel,poo_nirma@yahoo.com
Shyam Raichura,wamgw@titan.co.in
Saurabh agarwal,saurabhagarwal249@gmail.com
Chetan Jashnani ,chetdas0071@gmail.com
Sumedha Tekriwal ,sumedha@karunagroup.in
Abraham Jacob,abj.destiny@gmail.com
Dhurai,sdhurai@gmail.com
Jasmine,jasmine.zikandar@gmail.com
SUMIT GOYAL,Sumit@goyalsons.co.in
Kamaldeep Singh Katari,katarisons@gmail.com
Alex,alex@kavanal.com
Ankita agarwal,singhal18792@gmail.com
Alex  kavanal,alex@kavanal.com
Vivek Sukumaran,vivek246@yahoo.co
Manoj Singh,manojtdlj@gmail.com
Rana Roy,rana.roy@karunagroup.in
SHIVKUMAR DHARWAL ,shivdharwal1@gmail.com
NIRANJAN P,niranjan@titan.co.in
Rajeishh Kansara,shreejiiwatches@gmail.com
Nirav Patel,niravsvnit@gmail.com
Mridha,subratm@titan.co.in
Ankita Singhal,singhal18792@gmail.com
Rajesh selvarajan ,rsrajesh348@gmail.com
Govindraj kamath,govindrajkamath@gmail.com
 VISHRUT PANDYA,vishrut7@hotmail.com
KAVIT SETHI,kavitsethi@gmail.com
Abhishek,cnabhishek@gmail.com
SUNIL SARUR,sunilsarur@gmail.com
Joseph sebastian ,jojobiji@gmail.com
Perveen Udwadia,pudwadia@hotmail.com
Umesh H,umesh1986@gmail.com
MANOJ KUSHE,indotimebuzz@gmail.com
Reenu Sabari,reenumg@gmail.com
Nithyanand Kamath,kamathnithyanand@gmail.com
Sunjot Singh Saluja,sunjotsingh10@gmail.com
Anwar Rajani,anwarrajani@gmail.com
Anuj Agarwal ,tanishqajmer@gmail.com
Dinakar Babu,dinakar@titan.co.in
alisha,alisha@titan.co.in
T S Arun Prasad,arunprasad@titan.co.in
Sumedha Biswas,sumedha@titan.co.in
Sujith hiranand,sujithchatlani333@gmail.com
JAYANT BHATIA,jayantbhatia@rediffmail.com
Viresh Jain,viresh@surya-business.com
Umesh,mailumee@gmail.com
A.K.Shabeer,shabeer_kollam@yahoo.co.in
Dharmendra Waghela,Dharmeshw@titan.co.in
Sanjay Sethi,cksanjay1@gmail.com
Nitin Vira,nitinpvira@yahoo.com
Anil Kumar,anilkumar@titan.co.in
Vishrut Dinesh ,vishrut@titan.co.in
Avinash Singh,avinashsingh@titan.co.in
LAKSHMI PRASANNA ENTERPRISES,ostas@titan.co.in
Tushit Agarwal,tushit@gracesuppliers.com
Dnyanada Kadam,dnyanadasanjay@gmail.com
Ganesh SH,srish2003@gmail.com
NANWANI,harishnanwani@yahoo.com
CHANDRASHEKARAN DEVARAJ,santel.hsr@gamil.com
Nitin Jain,nitin@suryavista.com
Deepak Parasrampuria,deepakparas24@gmail.com
Arvind kumar kejriwal,akkarvind59@gmail.com
deepak srivastava,deepak_sri78@yahoo.co.in
MEENAKSHI C,santel.mc@gmail.com
Vijayakumar Palanisamy,vijaydevi.h35@gmail.com
Darshan Narvekar,darshan.gurudas@gmail.com
Abhishek Bajpai,abhishekb@titan.co.in
Gaurav Agarwal,tkkn@titan.co.in
Chandan Kumar,asulike.titan@gmail.com
Subramaniam Gunaseelan ,gp69dinesh@gmail.com
kashish goyal,kashishgoyal134@gmail.com
Arun kumar,arunkb@titan.co.in
Jayanti Patel,jayanti@ratnamgroupindia.com
Harshit Patel,harshit@ratnamgroupindia.com
Jenish Patel,jenish@ratnamgroupindia.com
Mandeep Grewal,mandeepgrewal@zena.co.in
Shajeev Murthy,mshajeev@gmail.com
Prakash,plmahboobani@gmail.com
Akshay Arora,advakshay@gmail.com
Noel. Kallu,noel@titan.co.in
Harish Nair,harishkumar@titan.co.in
Mohsin Shaikh,mohsin@titan.co.in
Kunal Dhruv ,kunald@titan.co.in
SOURAV MUKHERJEE,clearsight17@gmail.com
Krishna Sai M,mksai2000@gmail.com
Rahul johri,rahuljohri@titan.co.in
Swapnil Parab,swapniloptocare@gmail.com
vivek Sukumaran,Vivek246@yahoo.com
Tapan Ghosh,tapanghosh61@gmail.com
sanjay chawla,sanjay@essgeegroup.in
Hari Krishna ,hari.krishna@zimson.net
Vijaykumar ,smarteyecare3@gmail.com
Karthik Ramachandran,swarnamtimes@gmail.com
pawan agarwal,rohan.kripashree@gmail.com
Sarvesh,sarvesh@titan.co.in
Nilesh Jain,nilesh@suryavista.com
Manik Hans,manikhans@gmail.com
Sanjay Kumar,dozzen7@gmail.com
Suresh,d10885@baldealer.com
AZMAT,azzi.sidd@gmail.com
KUNAL S. KAPRE,kaprekunal@gmail.com
Rajeev  Tibrewal ,rktibrewal03@gmail.com
Raghav Kapoor ,ragkap1988@gmail.com
Chandan T A,tchandan50@yahoo.co.in
VALLIAPPAN VALLIAPPAN,valli.ngu@gmail.com
Ramesh Limbani ,rameshpremji@yahoo.com
Sunil Kumar Agrawal,madhav.titan2013@gmail.com
Manohar GM,manohar.gm@geberit.com
ASHISH LOHIA,ashish.lohia43@gmail.com
Mohan madhu,mohan.madhu.g@gmail.com
Manish Kotian,manishpkotian@gmail.com
Kiran Kumar,wgdjn@titan.co.in
SANSKRUTI RAJESH GANDHI,sanskrutigandhi@gmail.com
Suraj Lulla,lullasuraj@gmail.com
Rohit Khatwani ,bharat_group@yahoo.com
Ritesh Gupta,ritrshgupta@yahoo.com
Shritika De,shritika@titan.co.in
Kartikey srivastava ,kartiks@titan.co.in
RAJIV WADHWA,RAJIVW@TITAN.CO.IN
Pradeep Singh,pksingh172@gmail.com
Aaditya Nagpal,aadityanagpal@gmail.com
Abhijit Jadhav,jabhijeet@hotmail.com
Sarabjit Kaur brar,doc.sarabjit.brar@gmail.com
Quazi Mansoor,quazim@titan.co.in
Abhishek Agarwal ,abhishek.barpeta@gmail.com
Nitin,nitin@foxmengroup.com
Aparajita Shankar,aparajita@titan.co.in
Harveen singh Nanda,harveen@arenja.com
Revathy Rangan,revathyr@titan.co.in
Harish Ranganath,harish@maa.co.in
Kasturiranga Meda,rangameda@yahoo.com
Nitesh Samra,niteshsamra@gmail.com
Ashim Nagpal,ashimnagpal.lud@gmail.com
Faizan Syed,faizan@titan.co.in
Davis Thayyil,davis@popy.in
Aftab hussain,aftabhussain.helios1976@gmail.com
Bhavesh Patel,corbanoretail@gmail.com
SUBHADIP MITRA,subhadipm@titan.co.in
MallikarjunaRao,mallik_sarada@yahoo.com
Raj kumar,rajkumare@titan.co.in
Siju Varghese,siju@titan.co.in
Koshy Cherian,koshyc@titan.co.in
Sudeep Pandya,thisissudeep9@gmail.com
Mayank   Jain,tgcb@titan.co.in
Vishal Agarwal,vishal592491@gmail.com
Jasbir Singh,jasbir.tzp@gmail.com
suresh mahboobani,mahboobanis@yahoo.co.in
Ramesh Gopal,ramesh@sellmoreindia.com
Anuj Khandelwal,ktplanuj@yahoo.co.in
TONY,tony.pullan@gmail.com
Vikas Khattar,pikays518@gmail.com
Rajendra Sethia ,ucsrajendra@gmail.com
Mangesh,mangesh@titan.co.in
Sangeet Shah,saaveeretail@gmail.com
AJIT PAWAR,ajitp415@gmail.com
Shirish Khinvasara,skk1963@gmail.com
Pramod Jain,jainpramod78@yahoo.in
Renuka ,renukamaganti@gmail.com
Abhishek Kumar,ashavisionbihar@gmail.com
Shashwat Gupta,shashwat@ramprasadagencies.com
Jivin Panjwani,jivin1996@gmail.com
Nikita Gautam ,nikitagautam@titan.co.in
piyush khemka ,piyushv21@yahoo.com
Ajay Agrawal,abcraipur@gmail.com
Frank,fthottan@gmail.com
Jaya Reddy,jaya44434@gmail.com
Chandra Sekhar Gowd,chandra.gowd@akshataretail.com
Abhimanyu Verma,btqnda@gmail.com
MITHUN KUMAR MONDAL,mithun@titan.co.in
Abhishek nagendra ,cnabhishek@gmail.com
Pavithra ,pavithramdpavi93@gmail.com
Vaibhav Gandhi ,vaibhavrg@hotmail.com
YASH GANDHI,gandhi.yash@hotmail.com
Samresh Kumar,samreshk@titan.co.in
Brihaspati srivastav,brihaspati.sri@gmail.com
Pooja,ahaanventures@gmail.com
Ravi Dhillon ,rsdzenith@yahoo.com
Anant Kashliwal,kashliwalanant018@gmail.com
Surendra Jain,padmawati82@gmail.com
Jahir Mujaear,jahir@titan.co.in
Anjani Kumar,krishnasquaresales@gmail.com
Disha chugani,dishachugani5@gmail.com
INDRANIL LAHIRI,ilahiri@titan.co.in
Santosh Chandak,chandakbgm@rediffmail.com
Mansi khatri,mansik@titan.co.in
Himanish Mukherjee,himanish@titan.co.in
GAURAV SANGHANI,gauravsm83@gmail.com
Rakesh jain,shriom.group@gmail.com
Nilanjana Roy,nilanjanar@titan.co.in
Vijay patel ,vijay@vijaytravels.com
Pratik Dangare,pratikdangare1995@gmail.com
Sangita kharmate,sangitakharmate@gmail.com
Nishant Mittal,nishantm@titan.co.in
PRUTHVIRAJ.BAJRANG.KHARMATE,pruthvirajkharmate99@gmail.com
Ankit Bhardwaj,ankitb@titan.co.in
Niyaz,hrd@vvpl.net
Nikhil Sinhal,nikhilsinhal@gmail.com
Srilekha resdy,srilekareddy07@gmail.com
Preeti koratala ,preetikoratala@gmail.com
Saksham Agrawal,saksham.wk@gnail.com
Ashutosh shah,ashutoshshahshah@yahoo.in
Philip Andre Vianna,philipav@titan.co.in
ANIL AGRAWAL,nhplanil@gmail.com
Kamal Deep Singh Katari,katarisons@gmail.com
Sumit Ranjan,sumitranjan@titan.co.in
Abhijeet Darade,abhijeetdarade2988@gmail.com
Nandan Goli,nandangoli@gmail.com
Jay Shah,jayshah@titan.co.in
P R Vignesh,vigneshraja@yahoo.com
Shobhit Agrawal,shobhit9@yahoo.com
Nilesh Hampe,nileshh@titan.co.in
SIDDU,tkgs@titan.co.in
Ankur,ankurs@titan.co.in
Pankaj Chhabra,pchhabra75@gmail.com
Saurabh,saurabhs@titan.co.in
Satish Jayapaul,Satishjaypaul9@gmail.com
Dhruv Bahl,dhruvbahl@live.com
DOMINIC XAVIER,fcsts@titan.co.in
Hari Narayanan ,hari@sakthitimes.in
Javed Saiyad,saiyad119@gmail.com
Amit Singh,amitks@titan.co.in
Avinash kalyani,avinashkalyani@hotmail.com
Mita Mittal,mita@titan.co.in
Haresh Virpara,hareevirpara@gmail.com
Dodda Nagendra Prasad ,dnagendrap@gmail.com
Priti Daga ,Priti.ladha@yahoo.com
Arun Uberai,magnet.distributors@gmail.com
Dhruv Garg,dhruvggarg@gmail.com
Rohan,rohans@titan.co.in
Ashutosh Shah,ashutoshshah.patliputra@gmail.com
Shekhar Jhunjhunwala,sjhunjhunwala2207@rediffmail.com
M C Bopanna ,bopanna@titan.co.in
VIVEK PATEL,hr@tridentindialtd.com
gaurish madan,gaurishmadan@gmail.com
Abhinav Agarwal,abhi91.agarwal@gmail.com
Aditya Sahu,adisahu@gmail.com
Ramanamoorthy,ramanamaheswaran@gmail.com
Dwaipayan Sen,dwaipayan.sen@topsel.co.in
Syed Abuthahir,syfa08_india@yahoo.com
Nirmalavel Kathirvelu ,knirmalavel@gmail.com
Babu,babuse@titan.co.in
Narasimhan Yamunan,narasimhanyl@titan.co.in
Boban Mathew,Bmathew64@gmail.com
Uttam Motani,bansaltimesbettiah@gmail.com
Ashwini Gore ,guru.associates19@gmail.com
Abhishek kumar ,akparle@gmail.com
Maganti Bhaskara murthy,mbmhyd@yahoo.com
Piyush goel,piyushg635@gmail.com
Sunil Ravindranath ,sunilrnath@gmail.com
JAMEEL,kwh786@gmail.com
Manmeet singh hora,manmeethora@outlook.com
Sagar Gera,sagargera@titan.co.in
Ram Cholan,ramcm.rr@gmail.com
RUCHIR RAJ ,r.raj0013@gmail.com
Mukesh. Roy,mkroy7701@gmail.com
Ankit rai,ankitr@titan.co.in
maris,sgmaris@gmail.com
Prafull Jain,prafull64@gmail.com
Dimple Sharma,dimple_sharma073@yahoo.co.in
Gourav Behera,gourav.behera@takshgroup.com
Nikhil Thakkar,btqhub@yahoo.co.in
RAJAT AGARWAL,js_rajat@yahoo.com
Mamina Rout,hr@sgbl.in
Arpit Kothari,arpit16@gmail.com
Sagorika Hazra,sagorikah@titan.co.in
Lata Agarwal,lata@gracesuppliers.com
Arvind,arvind@titan.co.in
Nityanand Sonthalia,nnsonthalia@shriramozone.com
KhaziAbrar ,kjjewelsdvg@gmail.com
Pankaj Tiwari,pankaj@titan.co.in
Hargobind Agarwal,hargobindagarwal@gmail.com
PRASAHNTH CHITRIKI,anpgoldplus@gmail.com
Akshoy Hans,akshoy.hans@gmail.com
PRASHANTH CHITRIKI,anpgoldplus@gmail.com
Jogendr Tiwari,director.destinylifestyle@gmail.com
Ojaswa Pal,ojaswapal@gmail.com
Kiran Kumar Mustyala,k2senterprises9@gmail.com
Murugan,muru_ng@rediffmail.com
Velamati,narayanvelamati@gmail.com
Navin Singh,navins_cal@yahoo.co.in
Jai Prakash Singh Yadav,jaisingh.250079@gmail.com
Pooja Karamchandani,kcpooja9@gmail.com
Rajat Batra,madhubatra@gmail.com
Kushal Gandhi,kpgandhienterprises@gmail.com
Nityananda Kundu ,nityanandakundu@gmail.com
Sagar Kalaria,sagar.patel2020@gmail.com
Abhishek Babbar ,abhishekbabbar@titan.co.in
Manoj Parasrampuria,manojparasrampuriya@gmail.com
Vivek Hans ,vivekhans@yahoo.co.in
Kaustubh Shah ,Saaj.Jewellers@yahoo.com
Ahuta deshmukh,ahuta9@gmail.com
Deepak Kumar Sahu,deepakks@titan.co.in
Sreejith,sreejithps@titan.co.in
Manish Gupta,manishg@titan.co.in
Chandrashekaran Devaraj ,santel.hsr@gmail.com
Abhisek,abhisekc@titan.co.in
Ashish Rathi,ashishrathi1977@gmail.com
Shambhu kumar,shambhu.bgs@gmail.com
Krunal Dhanvi,krunaloptocare@gmail.com
Sujit Singh,sujit.kr.singh86@gmail.com
Siddharth Adeshra,siddharth@thekanchan.in
AMIT AGRAWAL,amitag2811@rediffmail.com
Viren kotak ,virenkotak1@gmail.com
Annapoorna G,annapoorna@titan.co.in
IRSHAD KLAYANI,irshadkalyani@gmail.com
Balaji Appuswamy,balajiappuswamy@gmail.com
Niket Singh,niketsingh13@gmail.com
SACHIN PATIL ,sachinsp.147@gmail.com
Ravi Kant,ravikant.98351@gmail.com
Trishuldhar Tibrewal,retail.srpl@gmail.com
Meenu Tyagi,sabla.rbl@gimail.com
Parthiban,imparthi@gmail.com
RAJ KUMAR JASHNANI,rajjashnani@rediffmail.com
ANUAG BANSAL,ANURAGBANSAL1973@GMAIL.COM
Philem Rajesh singh,philem_rajesh@rediffmail.com
Prasun,btqatb@titan.co.in
Gururaj HG,guru@titan.co.in
Rakshit Agarwal ,rakshit@titan.co.in
Sheetal Siroya,sheetal@titan.co.in
Sidharatha Agarwal ,sidharatha@titan.co.in
Amit panwar,amit@titan.co.in
kamal Fogla,kamalkumarfogla@gmail.com
Ritesh Kar,riteshkar@titan.co.in
Vishal gupta,vishalg@titan.co.in
Manoj shukla,manojshukla@titan.co.in
Sumit Gupta,sumit@titan.co.in
Hemant Pamnani,hemant.pam@gmail.com
Rahul Raj,lifestyleg@gmail.com
Kunal Jalan,kunal@jalan.co.in
Manoj Gautam,manoj@titan.co.in
Krishnaly Bhattacharyya dutta,krishna_ly@rediffmail.com
Raman Akella,ramanakella2005@yahoo.co.in
soniya vora,soniyavora@gmail.com
Sumit Ghosh,sumitghosh@titan.co.in
Akash Tiwari,akash.t786@gmail.com
Gunjan Agarwal,gautam_enterprises@hotmail.com
Gaurav Shukla,gauravraje1@rediffmail.com
Mohd Imran ,mohdimran@titan.co.in
Sanjay Dagha ,smdagha@gmail.com
CH RAM GOVIND,govind.chintapalli161@gmail.com
Manish Dhall,rajeeventerprises@gmail.com
Niharika Drolia Sharma,niharikadrolia@titan.co.in
Ashok,tbgb@titan.co.in
Anirban Banerjee,anirbanb@titan.co.in
Prasanna K R,pkrservo@gmail.com
VIjay Garg ,vijaygarg@marutimycar.com
Jagadeesh,arikela.jagadeesh@gmail.com
Raj Jashnani ,rajjashnani@rediffmail.com
Deepak Agarwal ,er1deepak@yahoo.com
Sagar shah,aanviieyeplus@gmail.com
Sudhanshu Rastogi ,sudhanshu1994@gmail.com
Nandakumar A R,tcbc@titan.co.in
Sandip Sadhu,sandips@titan.co.in
Irshad Kalyani,irshadkalyani@gmail.com
S KUNDU,santitradingmalda@gmail.com
Harsh Sinha,harshsinha@hotmail.com
Haresh,hareevirpara@gmail.com
VISHRUT PANDYA,vishrut7@hotmail.com
RAJESHEMMADI ,rajeshe@titan.co.in
Elangovan R N,rnelangovan17@gmail.com
Disha,dishachugani5@gmail.com
Rakesh Jain,lnji569@gmail.com
Kamalesh kumar ,eyeplus@rediffmail.com
Sourabh Shah,sourabh784@gmail.com
Q M Nooruddin,nooruddin@titan.co.in
Venkatesh K,venkateshk@titan.co.in
Hari Krishna,hari.krishna@zimson.net
Shabeer,tbsa@titan.co.in
Mallikarjuna Rao,malik_sarada@yahoo.com
himanshu dadwani,himanshuz123@gmail.com
ARUN GUL LILANI,ARUNLILANI@GMAIL.COM
ABDUL KHADER ZEELANI,wcenterprises2020@gmail.com
Kamal malhotra ,kamalmalhotra98111@gmail.com
Pavan Pareek ,pavan.pareek@gmail.com
Vaithiyanathan Paramasivam,vaithiyanathan@titan.co.in
Pramodh RVH,srilakshmirv@gmail.com
Anurag Bansal ,Maakailajewels@gmail.com
PRATHEESH PRABHAKRAN ,pratheesh@titan.co.in
Krishna,srikrishnam@titan.co.in
Chetan Hanamsagar,wmahs@titan.co.in
Adithan Selvaraj,adithan@titan.co.in
Mallikarjunaswamy Bhari Thippeswamy,mallik1946@gmail.com
Abdul khadar,abdulns@gmail.com
Gopal Debnath ,gopald@titan.co.in
ABHAY SANGHAVI,fmkmw@titan.co.in
ketan joshi,kjoshivr@gmail.com
Khokan Nag ,khokan@titan.co.in
Ranjay tibrewal,ranjaybgp08@gmail.com
Kunwar Dilbaghi,sohrab@titan.co.in
ASHOK KUMAR LOHIA,ashish.lohia43@gmail.com
Gaurav Bora,gauravb@titan.co.in
Chaithanya,chaithanya1@titan.co.in
Ramesh Shiradona ,mdsawbjp@gmail.com
Nagapriya,nagapriyatummala@gmail.com
Ganesh Murugan K,ganeshmurugan06@yahoo.com
Saket Agarwal,saket@industrialassociates.co.in
SHIRSAK BEHERA,shirsak.behera@takshgroup.com
Megha Agarwal ,magarwal@lexusmotors.in
Anita Sharma,rudra11.anita@gmail.com
PRACHI PARICHITA,prachiparichita@titan.co.in
Ashish Gupta,ashishgupta_sre@yahoo.com
ANSHU PAHWA,ASNHU@SAISHREEJA.COM
Shubham Guria,shubhamguria@gmail.com
Nitant megotia,distributorshindustan@gmail.com
Ashwani Khanna,khannaashwani@hotmail.com
Umesh Bhatia,prodigals.mia@gmail.com
Manohar GM,gm6378@gmail.com
Duanshi Chawla ,duanshichawla123@gmail.com
Dhirenn Thakkarr ,elveety@hotmail.com
Dr u.imadadullah,wauts@titan.co.in
Geo Sebastian,geojojo123@gmail.com
Pawan Saraswat,pawan.saraswat@mardaretail.com
Upasana Vivek Pandey,dataimperio@gmail.com
Mohammed zunaid ,zunaid@abminc.in
Makarand Jadhav,makarand_jadhav1@yahoo.co.in
Dhaval Mehta,dhavalm@titan.co.in
Deepk Jadhav ,deepakjadhavgv@gmail.com
Vinay Surana,shritulsijewels@gmail.com
Touhid Raja Choudhury ,touhidrajachoudhury@gmail.com
Nilesh Patil,nilesh.patil2802@gmail.com
ATUL SEHGAL,atul.sehgal@aakritiworld.com
Harsh Singh,harshsingh889@gmail.com
Anil Gupta ,jmd_bbsr@yahoo.co.in
Aniket Jadhav ,aniket10_a@yahoo.co.in
Niemish Sancheti,niemish@gmail.com
KHAWJA RAHAMATHULLAH,kksfsa98@gmail.com
Vaibhav Kothari,vaibhavbkothari@gmail.com
Saurabh Agrawal,agrawal_sk11@yahoo.com
Thyagarajan,thyaga241@gmail.com
PAVAN NARANG ,pavannarang2050@gmail.com
Akshay Ranpise,akshayranpise@yahoo.co.in
Alankar Wadhwani,alankar_w@hotmail.com
Bhharat Chhotai,bharat@chhotai.com
Varun Kataruka,varunkataruka@gmail.com
Anil chugh ,anilchugh.bhopal@rediffmail.com
RAMAPRASAD AR,ramaprasadar@gmail.com
rohit maria,sales@accordcomputers.com
VISHNU HASSAN,vishri2806@gmail.com
SUBRAMANIAN,badrimanico@gmail.com
Mukesh ,mukesh.jodhwani@gmail.com
Nirav Kothari,nirav8948@gmail.com
Mohit Agarwal,mohit_62@yahoo.co.in
UMA KANT GUPTA,riddhisiddhi.tanishq@gmail.com
G RAVIKHUMAR,gravykumar@gmail.com
Seema Khandewal,khandelwalseema1431@gmail.com
RIDDHI SIDDHI,riddhisiddhi.tanishq@gmail.com
Hemant Bhavsar ,wotlatur@gmail.com
Shweta Shah,swetashah2210@gmail.com
Umang Modi,odiwiz@gmail.com
Nidhi Goel,vidyaramassociates@gmail.com
Pruthvirajkharmate,pruthvirajkharmate99@gmail.com
Deepak B Malkani ,dpkmalkani@gmail.com
Jay kamat,Jaykamat100@gmail.com
Ajeet Arenja,ajeet@arenja.com
Nirav Gupta ,niravmgupta@gmail.com
Vatsal Gupta,vatsal10893@gmail.com
Ravi,ravimohraj@gmail.com
Conway,conwayg@titan.co.in
Viny Joseph,vinyjoseph42@gmail.com
Sanjay jain,sanjayjn04@yahoo.in
DIPAK SHAH,dipakshah223@gmail.com
Abhay Sanghavi ,Sanghavikb@gmail.com
Velamati Narayandas,narayanvelamati@gmail.com
Akshay Mehta ,akshaysm@gmail.com
Ajay Bothra,btqsgn@titan.co
Saurabh agarwal ,saurabhagarwal249@gmail.com
Harmeet Singh ,pureearth2009@gmail.com
Aditya,adityananchal3@gmail.com
Sanjay,mehrotrasanjay@hotmail.com
Rajiv goyal ,rajivfine@gmail.com
Sanjay Mehrotra,mehrotrasanjay@hotmail.com
Vivekanand Prasad,vivekanandp@titan.co.in
Shyamala Ramanan,shyamalar@titan.co.in
Nidhi,nidhi.vinayak@gmail.com
Kaushal Sah,kaushalsah@rediffmail.com
Manoj singhal,drmanojsinghal2014@gmail.com
VIPIN SINGH,singhvipin5000@gmail.com
Rajashekar Rao Ailneni,rajailneni@gmail.com
Yash goyal,goyalyash51@gmail.com
Garima Saran,sbassocites1978@gmail.com
sujit chandra saha,wcbke@titan.co.in
Hariharan,cemboostindiapvtltd@gmail.com
Shivani Saksena,shivani@titan.co.in
Sanjeev Bhasin,btqvar@titan.co.in
Gaurav agarwal ,gauravagarwall@hotmail.com
Amit Kathuria,amitkathuria023@gmail.com
Nirav Gupta,diwantrading1969@gmail.com
Sanjeev Chawla,sanjeevchawla.rohtak@gmail.com
D krishna Rao,diamondkrishna@gmail.com
Nirav Gupta ,diwantrading1969@gmail.com
 P K RAMESH,26rameshpk@gmail.com
Vaibhav Patil,vaibbhavvp@gmail.com
Arvind Sacheti,sacheti.a@gmail.com
Hemang Jain,solitairejewels08@gmail.com
Vishal Arya,arya_vishal@rediffmail.com
Jameel Azim,jameel@zimson.net
Gayathri Ranganathan,gayathrir@titan.co.in
Ashok manaktala,ashokmanaktala.cal@gmail.com
Vivin Balaji Kandasamy Senthilkumar ,ksvivinbalaji@gmail.com
Umang,umang.shreemali23@gmail.com
Kaustubh Shah,kaustubh.shah11@gmail.com
M.Gopinath ,gsjewellers.kgr@gmail.com
Amit Manaktala,amanaktala@gmail.com
Khushi Pillai,khushi.pillai@gmail.com
Goyal,rajivfine@gmail.com
Premchand ,premkarun2007@gmail.com
Sanjeev Bhasin,sanjeevbhasin17@gmail.com
Kamal Gupta,kamalgupta75@gmail.com
Anshu Pahwa ,anshu@pahwaautoworld.com
HARISH NANWANI,harishnanwani@yahoo.com
Hariharan ,cemboostindiapvtltd@gmail.com
PRATUL AGRAWAL,agrawal.pratul90@gmail.com
ARAVINDH T,aravind.alh2@gmail.com
Ritesh Goyal,ritg08@gmail.com
Devesh Patel,mail.swastikdistributors@gmail.com
Priya Uppalapati ,pria_11@yahoo.com
Manish Bhatia ,manishbhatia@mgbhotels.com
Pankaj Agarwal ,agarwal.pankaj1959@gmail.com
Abhijit Banerjee,abhijitb2@titan.co.in
Jayanti,jayanti@ratnamgroupindia.com
Anand Ganpaa,anand.ganpaa@gmail.com
Rahul Pandey,rahulpandey@titan.co.in
Bikramjit ,bikramjitm@titan.co.in
Yadavendra Kumar Kalia ,drykkalia27@gmail.com
MUTHAMIZH,ssyedismaili2@gmail.com
Sasitharan.A,sasimys@gmail.com
Yash Daruka,daruka.yash7@gmail.com
Pankaj Daruka,natraj.wot@gmail.com
Ruchi Daruka,ruchidaruka1997@gmail.com
B A Naazzar,naazzar@gmail.com
Jay kamat ,Jaykamat100@gmail.com
kavithamanuel,kavitha@rvinds.com
Harikrishnan,hsridharan75@gmail.com
Chandan Das,chandan@titan.co.in
Rohit Khatwani,bharat_group@yahoo.com
Abhoy Sankar Tewari,abbis4u@gmail.com
A V Nageswara Rao,avnr@ichoice.in
KetanShah ,isbw@titan.co.in
Prakhar Soni,CONTACTPRAKHARSONI@GMAIL.COM
Ramesh gop,ramesh@sellmoreindia.com
Ziabudeen ,ziapulavar@gmail.com
Kuriakose G. Valavi ,kgvalavi@hotmail.com
V V L N CHOWDARY,vvlnchowdary@gmail.com
Sadhik ,sadhik_ams@hotmail.com
Shashikant Chiripal,shashikant.c@karunagroup.in
Arvinder Bains,arvinderbains@gmail.com
Tummala Nagapriya ,nagapriyatummala@gmail.com
Shashikant g kambli,shashikantk1967@gmail.com
Anubhav,btqabl@titan.co.in
Queeta Rawat ,homiecreations2020@gmail.com
Kamat,ppkkji@gmail.com
seetharamaraju sagi,seetharam@titan.co.in
Nayani mallikarjuna,nayaniarjun@gmail.com
Meghna Prathikantam,meghna@titan.co.in
Rohit Mathur,rohit@mnrretails.com
Rekha Thyagarajan ,thyaga241@gmail.com
ASHUTOSH SINGHAL,ACCOUNTS@ADIYARETAIL.COM
Bala Srinivas Polineni,polinenib@gmail.com
Ritesh Agarwal,riteshagarwal@me.com
Purabi Chanda,purabi@titan.co.in
Haritha Reddy ,etlamreddy1@gmail.com
Habibulla.A,habisampurna@yahoo.co.in
NAGENDRA BABU ,nagendrababu.a@yahoo.com
Balavenkataraman(Vinod),balavinod24@gmail.com
Ramana poripireddy,ramanaporipireddy@gmail.com
Ramprasad V,cpphyd@gmail.com
Bala Kameswara Rao,vbalakrao@gmail.com
Rajini.A,rajinia@titan.co.in
Narasimha Rao Dadi ,dadicelebrations@gmail.com
Jogulamba Vallurupalli ,jogupersonal@gmail.com
SRIKANTH V,srikanthv@titan.co.in
Nethi Sekhar,nethisekhar@gmail.com
MAHENDER BARAD,barad.mahender@gmail.com
Pulumati Venkata Narayana Rao,pvnrao7@gmail.com
Rajesh Malik,rajeshmalik@malikcars.com
Rajini,aks.rajini@gmail.com
Saravanan ka,saravanaa@saravanaa.com
yabisheak888@gmail.com,yabisheak888@gmail.com
Rishab kothari,multistarjewels@gmail.com
MANUEL MANUEL,manuelmanuel63@gmail.com
Haroon,khaderharoon@gmail.com
Baskarasubramani Selvapathy,baskarsbs@yahoo.com
 Baskarasubramani Selvapathy,baskarsbs@yahoo.com
PRASHANTH GUPTA,guptaseyeplus@gmail.com
Arvind Kumar Gupta,kasoudhanarvind@gmail.com
Sirisha Rao,sirisha@titan.co.in
Vamsi,avamsi@titan.co.in
Amit Dharap,Amitdharap@titan.co.in
Ramesh Acharya,ramesha@titan.co.in
Krithika Manohar,krithika@titan.co.in
Pretty Mariam Sijo ,hr@abadbuilders.com
Manish Gupta,manishgupta@titan.co.in
Nithya V S,corporate@rvinds.com
Komala M,corporate@rvinds.com
Nithya V S,corporatehr16@gmail.com
Niraj Bhakare,niraj@titan.co.in
Paresh Rastogi,paresh@titan.co.in
P.N.MALLIKARJUNA RAO,wotkkd@gmail.com
Santhosh kumar S,santhoshsrs21@gmail.com
ALTAF  MAVANY,eldorado.mavany@gmail.com
Rahul PUNDHIR,vinayakam092020@gmail.com
Sridharan,hsridharan75@gmail.com
Rahul Choudhary,rahul.c@caratlane.com
Adithan,adithan@titan.co.in
Sumedha Agrawal,sumedhaagrawal@titan.co.in
SUJAI SUKUMAR,sujais@titan.co.in
Swati Panigrahi,swatip@titan.co.in
Augustine ,augusacm@titan.co.in
Manish Jagda,manish.s@caratlane.com
Thomas J Poonolil ,hearingall@gmail.com
Himanshu Gupta,himanshugupta@titan.co.in
Hilsa Dhar,hilsa@titan.co.in
Priya M Pillai,priyam@titan.co.in
Lavanya Saravanan,lavanyas@titan.co.in
Sabharatnam Narayanan,narayanans@titan.co.in
Sneha Chawla,snehac@titan.co.in
Padmaja Duvvuri,padmajad@titan.co.in
Komal,komalvashist@titan.co.in
Ketan Suri,ketansuri@titan.co.in
Kalyan Banerjee,kalyan@titan.co.in
Ranjita Hari,ranjitahari@titan.co.in
Ritesh Jain,Maakailajewels@gmail.com
Gyaneshwar Ojha,gyaneshwar.ojha@gmail.com
PAWAN,pawan.saraswat@mardaretail.com
CHANCHAL MUKHERJEE,mukherjeechanchal953@gmail.com
Ashis Chakraborty,hr@surya-business.com
MOHDZAKIR HUSSAIN,MOHAMMED11@TITAN.CO.IN
Raghav Kapoor,ragkap1988@gmail.com
Purvi Patel,purvi@ratnamgroupindia.com
Dr Munir Ahmad Malik,drmunirmalik@gmail.com
Nisar Ahmad Malik,nisartitan@gmail.com
MANIYAN RAJANGAM,santelhosur@gmail.com
Ratna Singh,tanishq.shivaswarnasales@gmail.com
Hitesh Shah,kavithashah77@gmail.com
Mayank Periwal,tbri@titan.co.in
Vrishab Chandan T,vrishabct@gmail.com
Thirunavukkarasu Valliappan,thiru1269@gmail.com
Karishma Agarwal,karishma.agarwal07@gmail.com
Ronak,ronak@bathanibuilders.com
Arnav,narainarnav@gmail.com
Swati,dozzen7@gmail.com
Duanshi Chawla,duanshichawla123@gmail.com
Abhishek Kumar Singh,abhishek.pearlcars@gmail.com
Srinivas P,wntvs@titan.co.in
Sairam,sairam.s1994@gmail.com
Ravi Goyal,btqbwr@titan.co.in
Chinmay Agarwal,chinmayagarwal11@gmail.com
Shashvat Aggarwal,shashvatagg14@gmail.com
Anshul Singh Thakur,anshultasmaya@gmail.com
Navpreet Singh,navpreet@inderas.com
Aayushi Ray,aayushikhanna@titan.co.in
Abhijit Mukherjee,abhijit.m@titan.co.in
Abhishek Arvind Shastri,abhishekshastri@titan.co.in
Abraham M,abraham@titan.co.in
Aishwarya Saraswat,aishwaryas@titan.co.in
Alex Antony .,alex@titan.co.in
Anand D,anandd@titan.co.in
Anbu K,anbuk@titan.co.in
Anirudh Narain,anirudhnarain@titan.co.in
Anjali Rajan,anjalirajan@titan.co.in
Ankita Bhowmik,ankitab@titan.co.in
Anne Priyanka Miranda,annemiranda@titan.co.in
Suchira Anya,anya@titan.co.in
Rani Archana,archanar@titan.co.in
Arpitha G,arpitha@titan.co.in
Arun Kumar P,arunkumar@titan.co.in
Arun Suresh,arunsuresh@titan.co.in
Ashish Bhat,ashishbhat@titan.co.in
Ashish Sharma,ashishsharma@titan.co.in
Ashray Makar,ashray@titan.co.in
Vamsi Krishna,avamsi@titan.co.in
Beena Edward .,beena@titan.co.in
Belchada Dhanashree Gopal,belchadadhanashree@titan.co.in
Benjamin Felix Rajkumar,benjamin@titan.co.in
Bhavesh Ashok Solanki,bhaveshsolanki@titan.co.in
Bhavna Sharma,bhavna@titan.co.in
Brijesh R Ved,brijeshr@titan.co.in
Chandra Mohan K,chandramohan@titan.co.in
Clara E Lobo,claral@titan.co.in
David Kabil Dev R,davidr@titan.co.in
Deepali Krishnarao Shirke,deepali@titan.co.in
Deepika N,deepikan@titan.co.in
Dhanya K,dhanyak@titan.co.in
Felix Devasia,felixd@titan.co.in
Gloria Dsouza,gloriadsouza@titan.co.in
Gurkirandeep Singh,gurkirandeep@titan.co.in
Gururaj H G,guru@titan.co.in
Hera Fatima Siddiqi,herafs@titan.co.in
Jayadeep Busareddy,jayadeepb@titan.co.in
Jim George,jimgeorge@titan.co.in
Junee Chetri,juneechettri@titan.co.in
Jyotsna Srivastava,jyotsnas@titan.co.in
Kanika Gupta,kanikagupta@titan.co.in
Karan Mistry,karanmistry@titan.co.in
Karthik Shunmuga sundaram b,karthikb@titan.co.in
Karthikraja M,karthikrajam@titan.co.in
Aloysius Kiran A,kirana@titan.co.in
Kirti Vikirna Lal,kirtilal@titan.co.in
Kishore Kumar S,kishoreks@titan.co.in
Komal Vashist,komalvashist@titan.co.in
Krishnamurthi T V,krishnamurthi@titan.co.in
Kumar R,kumarr@titan.co.in
Kumkum Agarwal,kumkuma@titan.co.in
Kushagra Sharma,kushagras@titan.co.in
Lakshmi Kumar P,lakshmikumar@titan.co.in
Lalita Joshi,lalitaj@titan.co.in
Linita,linita@titan.co.in
Mahidharbabu,mahidharbabu@titan.co.in
Manju Vidhya T,manjut@titan.co.in
Gnanalet Mary M,mary@titan.co.in
Meena Bhatnagar,meenabhatnagar@titan.co.in
Murugan M,muruganm@titan.co.in
Nandini Das Gupta,nandinid@titan.co.in
Neelavannan K K,neelavannan@titan.co.in
Nirjhari Kher,nirjhari@titan.co.in
Noopur Borwankar,noopur@titan.co.in
Padmaja Saksena,padmajad@titan.co.in
Pasupathy Radhakrishnan,pasupathyr@titan.co.in
Pooja Singh,poojasingh@titan.co.in
Prabin Mukherjee,prabinm@titan.co.in
Pradeep R,pradeepr@titan.co.in
Priya Mathilakath Pillai,priyam@titan.co.in
Priyanka Chatterjee,priyankac@titan.co.in
Pushkar Bhalerao,pushkar@titan.co.in
Rachna Kapoor,rachnakapoor@titan.co.in
Rahul Srinivas,rahuls@titan.co.in
Rajalakshmi P,rajalakshmi@titan.co.in
Rajnarayan R,rajnarayan@titan.co.in
Rajashekar H,rajshekar@titan.co.in
Ramya Kandaswamy,ramyak@titan.co.in
Renjith G Nath,renjith@titan.co.in
Reshma Menon,reshmav@titan.co.in
Rishob P,rishobp@titan.co.in
Ravichandran R,rravichandran@titan.co.in
Robin Chacko,robinchacko@titan.co.in
Sabita Pradhan,sabitapradhan@titan.co.in
Sai Kumar Raju V V,saikumar@titan.co.in
Sailappan M,sailu@titan.co.in
Samira,samira@titan.co.in
Isukapalli Sanjeev Kumar,sanjeevk@titan.co.in
Sankar Y,sankary@titan.co.in
Senthil Kumar U,senthilkumaru@titan.co.in
SANKAR GOPALA KRISHNA IYER,shankarg@titan.co.in
Sharvary Naik,sharvary@titan.co.in
Shikha Lalwani,shikhalalwani@titan.co.in
M Sirisha Rao,sirisha@titan.co.in
Khadar Basha,skhadar@titan.co.in
Sohini Sinha,sohinisinha@titan.co.in
Sonal Krishen,sonalk@titan.co.in
Sourav Dutta,souravdutta@titan.co.in
Sourojit Ghose,sourojit@titan.co.in
Suguna M,suguna@titan.co.in
Dr Sunil Jajit,suniljajit@titan.co.in
Vakalapudi Surya Teja,suryateja@titan.co.in
Swarnima,swarnima_mor@titan.co.in
Tanmay Varshney,tanmayvarshney@titan.co.in
Tanya Beniwal,tanya@titan.co.in
Lakshmi Toshniwal,tlakshmi@titan.co.in
Twinkle Suresh,twinkles@titan.co.in
Umesh Chandra Juyal,umeshj@titan.co.in
Utsav Ranjan,utsav@titan.co.in
Vahbiz K Chinoy,vahbiz@titan.co.in
Vanitha K,vanitha@titan.co.in
Veena K,veenak@titan.co.in
Veeraraghavan G,veerag@titan.co.in
Venkatakrishnan G,venkatakrishnan@titan.co.in
Vignesh P,vignesh@titan.co.in
Vinoth Kumar V,vinothkumarv@titan.co.in
Yagnavedan R,yagnavedanr@titan.co.in
Srinivasan AR,srinivasanar@titan.co.in
Suparna Mitra,suparnam@titan.co.in
Biju Alexander,bijua@titan.co.in
Arun Narayan,arun@titan.co.in
Ajoy Chawla,ajoyc@titan.co.in
Saumen Bhaumik,saumenbhaumik@titan.co.in
Ajay Dwivedi,ajayd@titan.co.in
Vijesh Rajan,vijesh@titan.co.in
Javed KM,javed@titan.co.in
Jaswant Thomas,jaswantht@titan.co.in
Venkatraman CK,venkatckv@titan.co.in
Mithun Sacheti,mithun@caratlane.com
User,user332@titan.com
User,user948@titan.com
User,user689@titan.com
User,user886@titan.com
User,user304@titan.com
User,user658@titan.com
User,user347@titan.com
User,user259@titan.com
User,user445@titan.com
User,user862@titan.com
User,user447@titan.com
User,user238@titan.com
User,user775@titan.com
User,user425@titan.com
User,user121@titan.com
User,user375@titan.com
User,user742@titan.com
User,user274@titan.com
User,user813@titan.com
User,user250@titan.com
User,user635@titan.com
User,user134@titan.com
User,user420@titan.com
User,user832@titan.com
User,user594@titan.com
User,user522@titan.com
User,user518@titan.com
User,user310@titan.com
User,user818@titan.com
User,user993@titan.com
User,user337@titan.com
User,user913@titan.com
User,user218@titan.com
User,user674@titan.com
User,user147@titan.com
User,user511@titan.com
User,user954@titan.com
User,user343@titan.com
User,user798@titan.com
User,user769@titan.com
User,user691@titan.com
User,user138@titan.com
User,user109@titan.com
User,user837@titan.com
User,user875@titan.com
User,user459@titan.com
User,user491@titan.com
User,user583@titan.com
User,user881@titan.com
User,user453@titan.com
User,user786@titan.com
User,user983@titan.com
User,user478@titan.com
User,user539@titan.com
User,user153@titan.com
User,user748@titan.com
User,user840@titan.com
User,user649@titan.com
User,user224@titan.com
User,user716@titan.com
User,user243@titan.com
User,user284@titan.com
User,user237@titan.com
User,user939@titan.com
User,user581@titan.com
User,user614@titan.com
User,user764@titan.com
User,user387@titan.com
User,user656@titan.com
User,user204@titan.com
User,user340@titan.com
User,user761@titan.com
User,user893@titan.com
User,user469@titan.com
User,user562@titan.com
User,user232@titan.com
User,user418@titan.com
User,user527@titan.com
User,user329@titan.com
User,user723@titan.com
User,user272@titan.com
User,user611@titan.com
User,user208@titan.com
User,user500@titan.com
User,user865@titan.com
User,user344@titan.com
User,user661@titan.com
User,user172@titan.com
User,user854@titan.com
User,user935@titan.com
User,user834@titan.com
User,user516@titan.com
User,user382@titan.com
User,user654@titan.com
User,user616@titan.com
User,user258@titan.com
User,user170@titan.com
User,user551@titan.com
User,user219@titan.com
User,user136@titan.com
User,user241@titan.com
User,user576@titan.com
User,user803@titan.com
User,user846@titan.com
User,user408@titan.com
User,test1@coact.co.in
User,test2@coact.co.in
User,test3@coact.co.in
User,test4@coact.co.in
User,test5@coact.co.in
User,test6@coact.co.in
User,test7@coact.co.in
User,test8@coact.co.in
User,test9@coact.co.in
User,test10@coact.co.in
